<?xml version="1.0" encoding="UTF-8" standalone="no"?>
<svg xmlns:rdf="http://www.w3.org/1999/02/22-rdf-syntax-ns#" xmlns="http://www.w3.org/2000/svg" height="25" width="50" version="1.1" xmlns:cc="http://creativecommons.org/ns#" xmlns:dc="http://purl.org/dc/elements/1.1/" viewBox="0 0 50 25.000001">
 <defs>
  <filter id="a" style="color-interpolation-filters:sRGB">
   <feFlood result="flood" flood-opacity=".58824" flood-color="rgb(74,74,74)"/>
   <feComposite operator="in" result="composite1" in2="SourceGraphic" in="flood"/>
   <feGaussianBlur stdDeviation="2" result="blur" in="composite1"/>
   <feOffset result="offset" dx="0" dy="0"/>
   <feComposite operator="atop" result="composite2" in2="offset" in="offset"/>
  </filter>
 </defs>
 <path style="color-rendering:auto;text-decoration-color:#000000;color:#000000;isolation:auto;mix-blend-mode:normal;shape-rendering:auto;solid-color:#000000;block-progression:tb;text-decoration-line:none;text-decoration-style:solid;image-rendering:auto;white-space:normal;text-indent:0;text-transform:none" d="m15.314 6.4924-7.383 10.381h4l-3.931 6.444h1l3.931-6.4447h14l-3.931 6.445h1l3.931-6.4447h4l7.3827-10.38z" fill-rule="evenodd" filter="url(#a)" fill="#7e7e7e"/>
</svg>
