<?xml version="1.0" encoding="UTF-8" standalone="no"?>
<svg xmlns:rdf="http://www.w3.org/1999/02/22-rdf-syntax-ns#" xmlns="http://www.w3.org/2000/svg" height="32" width="32" version="1.1" xmlns:cc="http://creativecommons.org/ns#" xmlns:xlink="http://www.w3.org/1999/xlink" viewBox="0 0 32 32.000001" xmlns:dc="http://purl.org/dc/elements/1.1/">
 <defs>
  <radialGradient id="a" gradientUnits="userSpaceOnUse" cy="1032" cx="15.58" gradientTransform="matrix(.88920 0 0 .59069 2.1459 424.79)" r="13.515">
   <stop stop-color="#ff0018" offset="0"/>
   <stop stop-color="#fff600" offset="1"/>
  </radialGradient>
 </defs>
 <g fill-rule="evenodd" transform="translate(0 -1020.4)">
  <rect style="color-rendering:auto;color:#000000;isolation:auto;mix-blend-mode:normal;shape-rendering:auto;solid-color:#000000;image-rendering:auto" height="15.262" width="23.262" stroke="#7e7e7e" y="1026.7" x="4.3689" stroke-width=".73790" fill="url(#a)"/>
  <rect style="color-rendering:auto;color:#000000;isolation:auto;mix-blend-mode:normal;shape-rendering:auto;solid-color:#000000;image-rendering:auto" height="10" width="1" y="1042.4" x="8" fill="#a2a2a2"/>
  <rect style="color-rendering:auto;color:#000000;isolation:auto;mix-blend-mode:normal;shape-rendering:auto;solid-color:#000000;image-rendering:auto" height="10" width="1" y="1042.4" x="23" fill="#a2a2a2"/>
 </g>
</svg>
