<?xml version="1.0" encoding="UTF-8" standalone="no"?>
<svg
   xmlns:dc="http://purl.org/dc/elements/1.1/"
   xmlns:cc="http://creativecommons.org/ns#"
   xmlns:rdf="http://www.w3.org/1999/02/22-rdf-syntax-ns#"
   xmlns:svg="http://www.w3.org/2000/svg"
   xmlns="http://www.w3.org/2000/svg"
   xmlns:sodipodi="http://sodipodi.sourceforge.net/DTD/sodipodi-0.dtd"
   xmlns:inkscape="http://www.inkscape.org/namespaces/inkscape"
   width="32"
   height="32"
   viewBox="0 0 32 32"
   version="1.1"
   id="svg25"
   sodipodi:docname="board_political.svg"
   inkscape:version="1.0.1 (3bc2e813f5, 2020-09-07)">
  <metadata
     id="metadata29">
    <rdf:RDF>
      <cc:Work
         rdf:about="">
        <dc:format>image/svg+xml</dc:format>
        <dc:type
           rdf:resource="http://purl.org/dc/dcmitype/StillImage" />
        <dc:title></dc:title>
      </cc:Work>
    </rdf:RDF>
  </metadata>
  <sodipodi:namedview
     pagecolor="#ffffff"
     bordercolor="#666666"
     borderopacity="1"
     objecttolerance="10"
     gridtolerance="10"
     guidetolerance="10"
     inkscape:pageopacity="0"
     inkscape:pageshadow="2"
     inkscape:window-width="640"
     inkscape:window-height="480"
     id="namedview27"
     showgrid="false"
     inkscape:zoom="16.54"
     inkscape:cx="13.391049"
     inkscape:cy="17.098463"
     inkscape:current-layer="svg25" />
  <defs
     id="defs14">
    <style
       id="style2">
      .cls-1, .cls-2 {
        fill: #4b4b4b;
      }

      .cls-2, .cls-3, .cls-4 {
        fill-rule: evenodd;
      }

      .cls-3 {
        fill: url(#radial-gradient);
      }

      .cls-4 {
        fill: url(#radial-gradient-2);
      }
    </style>
    <radialGradient
       id="radial-gradient"
       cx="262.172"
       cy="1108"
       r="169"
       gradientUnits="userSpaceOnUse">
      <stop
         offset="0"
         stop-color="#ff6"
         id="stop4" />
      <stop
         offset="1"
         stop-color="#8a1f60"
         id="stop6" />
    </radialGradient>
    <radialGradient
       id="radial-gradient-2"
       cx="541.828"
       cy="1108"
       r="169"
       gradientUnits="userSpaceOnUse">
      <stop
         offset="0"
         stop-color="#0f9"
         id="stop9" />
      <stop
         offset="1"
         stop-color="#066"
         id="stop11" />
    </radialGradient>
  </defs>
  <g
     id="Plan_de_travail_1"
     data-name="Plan de travail 1"
     transform="matrix(0.04255319,0,0,0.04255319,-1.0425526,0.9361713)">
    <rect
       class="cls-1"
       x="102"
       y="119"
       width="597"
       height="396"
       id="rect16" />
    <path
       class="cls-2"
       d="m 194,1306 h 26.926 v 216 H 194 Z"
       transform="translate(0,-792)"
       id="path18" />
    <path
       id="Rectangle_2_copie"
       data-name="Rectangle 2 copie"
       class="cls-2"
       d="M 570.074,1306 H 597 v 216 h -26.926 z"
       transform="translate(0,-792)" />
    <path
       class="cls-3"
       d="m 140,939 h 244.35 v 338 H 140 Z"
       transform="translate(0,-792)"
       id="path21"
       style="fill:url(#radial-gradient)" />
    <path
       id="Rectangle_3_copie"
       data-name="Rectangle 3 copie"
       class="cls-4"
       d="M 419.65,939 H 664 v 338 H 419.65 Z"
       transform="translate(0,-792)"
       style="fill:url(#radial-gradient-2)" />
  </g>
</svg>
