<?xml version="1.0" encoding="UTF-8" standalone="no"?>
<svg xmlns:rdf="http://www.w3.org/1999/02/22-rdf-syntax-ns#" xmlns="http://www.w3.org/2000/svg" height="32" width="32" version="1.1" xmlns:cc="http://creativecommons.org/ns#" xmlns:dc="http://purl.org/dc/elements/1.1/" viewBox="0 0 32 32.000001">
 <defs>
  <radialGradient id="a" gradientUnits="userSpaceOnUse" cy="1032" cx="15.58" gradientTransform="matrix(.35681 0 0 .60942 1.1898 -610.8)" r="13.515">
   <stop stop-color="#ff0018" offset="0"/>
   <stop stop-color="#fff600" offset="1"/>
  </radialGradient>
 </defs>
 <g fill="#7e7e7e" fill-rule="evenodd">
  <rect style="color-rendering:auto;color:#000000;isolation:auto;mix-blend-mode:normal;shape-rendering:auto;solid-color:#000000;image-rendering:auto" height="5.7985" width="1.0882" y="26.201" x="1.5819"/>
  <rect style="color-rendering:auto;color:#000000;isolation:auto;mix-blend-mode:normal;shape-rendering:auto;solid-color:#000000;image-rendering:auto" height="5.7985" width="1.0882" y="26.201" x="29.3"/>
  <rect style="color-rendering:auto;color:#000000;isolation:auto;mix-blend-mode:normal;shape-rendering:auto;solid-color:#000000;image-rendering:auto" height="5.7985" width="1.0882" y="26.201" x="10.821"/>
  <rect style="color-rendering:auto;color:#000000;isolation:auto;mix-blend-mode:normal;shape-rendering:auto;solid-color:#000000;image-rendering:auto" height="5.7985" width="1.0882" y="26.201" x="20.061"/>
 </g>
 <g stroke="#7e7e7e" fill-rule="evenodd">
  <rect style="color-rendering:auto;color:#000000;isolation:auto;mix-blend-mode:normal;shape-rendering:auto;solid-color:#000000;image-rendering:auto" fill-opacity=".78431" height="15.759" width="8.8302" y="10.204" x="11.57" fill="#caedff"/>
  <rect style="color-rendering:auto;color:#000000;isolation:auto;mix-blend-mode:normal;shape-rendering:auto;solid-color:#000000;image-rendering:auto" height="15.746" width="9.3343" y="10.211" x="2.0819" fill="url(#a)"/>
  <rect style="color-rendering:auto;color:#000000;isolation:auto;mix-blend-mode:normal;shape-rendering:auto;solid-color:#000000;image-rendering:auto" fill-opacity=".78431" height="15.746" width="9.3343" y="10.211" x="20.554" fill="#caedff"/>
 </g>
 <g>
  <rect style="color-rendering:auto;color:#000000;isolation:auto;mix-blend-mode:normal;shape-rendering:auto;solid-color:#000000;image-rendering:auto" height="11.193" width="8.3267" stroke="#7e7e7e" y="10.912" x="21.058" stroke-width=".60683" fill="#eaeaea"/>
  <rect style="color-rendering:auto;color:#000000;isolation:auto;mix-blend-mode:normal;shape-rendering:auto;solid-color:#000000;image-rendering:auto" height="2" width="13" y="25.366" x="14.033" fill="#333"/>
  <rect style="color-rendering:auto;color:#000000;isolation:auto;mix-blend-mode:normal;shape-rendering:auto;solid-color:#000000;image-rendering:auto" height="2.5946" width="32" y="7.3748" x="-4.4834e-8" fill="#333"/>
 </g>
</svg>
