<?xml version="1.0" encoding="UTF-8" standalone="no"?>
<svg xmlns:rdf="http://www.w3.org/1999/02/22-rdf-syntax-ns#" xmlns="http://www.w3.org/2000/svg" height="32" width="32" version="1.1" xmlns:cc="http://creativecommons.org/ns#" xmlns:dc="http://purl.org/dc/elements/1.1/" viewBox="0 0 32 32.000001">
 <defs>
  <radialGradient id="a" gradientUnits="userSpaceOnUse" cy="1032" cx="15.58" gradientTransform="matrix(.36096 0 0 .82993 10.376 -837.43)" r="13.515">
   <stop stop-color="#ff0018" offset="0"/>
   <stop stop-color="#fff600" offset="1"/>
  </radialGradient>
 </defs>
 <g fill-rule="evenodd">
  <rect style="color-rendering:auto;color:#000000;isolation:auto;mix-blend-mode:normal;shape-rendering:auto;solid-color:#000000;image-rendering:auto" height="21.443" width="9.4428" stroke="#a2a2a2" y="8.2786" x="11.279" stroke-width=".55727" fill="url(#a)"/>
  <rect style="color-rendering:auto;color:#000000;isolation:auto;mix-blend-mode:normal;shape-rendering:auto;solid-color:#000000;image-rendering:auto" height="2" width="12" y="30" x="10" fill="#7e7e7e"/>
  <rect style="color-rendering:auto;color:#000000;isolation:auto;mix-blend-mode:normal;shape-rendering:auto;solid-color:#000000;image-rendering:auto" height="2" width="12" y="6" x="10" fill="#7e7e7e"/>
  <path style="color-rendering:auto;color:#000000;isolation:auto;mix-blend-mode:normal;shape-rendering:auto;solid-color:#000000;image-rendering:auto" fill="#a2a2a2" d="m11 6a5 3.0864 0 0 1 5 -3.0864 5 3.0864 0 0 1 5 3.0864h-5z"/>
  <path d="m14.921 3.1644 1.0786-2.3011 1.0786 2.3011h-2.1573z" fill="#a2a2a2"/>
 </g>
</svg>
