<?xml version="1.0" encoding="UTF-8" standalone="no"?>
<!-- Created with Inkscape (http://www.inkscape.org/) -->

<svg
   xmlns:dc="http://purl.org/dc/elements/1.1/"
   xmlns:cc="http://creativecommons.org/ns#"
   xmlns:rdf="http://www.w3.org/1999/02/22-rdf-syntax-ns#"
   xmlns:svg="http://www.w3.org/2000/svg"
   xmlns="http://www.w3.org/2000/svg"
   xmlns:sodipodi="http://sodipodi.sourceforge.net/DTD/sodipodi-0.dtd"
   xmlns:inkscape="http://www.inkscape.org/namespaces/inkscape"
   width="256mm"
   height="64mm"
   viewBox="0 0 907.08663 226.77165"
   id="svg2"
   version="1.1"
   inkscape:version="0.91 r13725"
   sodipodi:docname="logo.svg">
  <defs
     id="defs4">
    <radialGradient
       r="13.515"
       gradientTransform="matrix(1.1868,0,0,0.7372,-2.4908,269.6)"
       cx="15.58"
       cy="1032"
       gradientUnits="userSpaceOnUse"
       id="a">
      <stop
         id="stop4160"
         offset="0"
         stop-color="#ff0018" />
      <stop
         id="stop4162"
         offset="1"
         stop-color="#fff600" />
    </radialGradient>
    <filter
       style="color-interpolation-filters:sRGB"
       id="a-3">
      <feFlood
         id="feFlood4185"
         flood-color="rgb(74,74,74)"
         flood-opacity=".58824"
         result="flood" />
      <feComposite
         id="feComposite4187"
         in="flood"
         in2="SourceGraphic"
         result="composite1"
         operator="in" />
      <feGaussianBlur
         id="feGaussianBlur4189"
         in="composite1"
         result="blur"
         stdDeviation="2" />
      <feOffset
         id="feOffset4191"
         dy="0"
         dx="0"
         result="offset" />
      <feComposite
         id="feComposite4193"
         in="offset"
         in2="offset"
         result="composite2"
         operator="atop" />
    </filter>
  </defs>
  <sodipodi:namedview
     id="base"
     pagecolor="#ffffff"
     bordercolor="#666666"
     borderopacity="1.0"
     inkscape:pageopacity="0.0"
     inkscape:pageshadow="2"
     inkscape:zoom="0.7"
     inkscape:cx="470.56683"
     inkscape:cy="41.323695"
     inkscape:document-units="px"
     inkscape:current-layer="layer1"
     showgrid="false"
     inkscape:window-width="1280"
     inkscape:window-height="962"
     inkscape:window-x="1280"
     inkscape:window-y="72"
     inkscape:window-maximized="1" />
  <metadata
     id="metadata7">
    <rdf:RDF>
      <cc:Work
         rdf:about="">
        <dc:format>image/svg+xml</dc:format>
        <dc:type
           rdf:resource="http://purl.org/dc/dcmitype/StillImage" />
        <dc:title></dc:title>
      </cc:Work>
    </rdf:RDF>
  </metadata>
  <g
     inkscape:label="Calque 1"
     inkscape:groupmode="layer"
     id="layer1"
     transform="translate(0,-825.59056)">
    <g
       id="g4211"
       transform="matrix(4.5680633,0,0,4.5680633,-836.78023,-3605.0131)">
      <g
         transform="translate(189.46782,-42.590088)"
         id="g4195">
        <path
           inkscape:connector-curvature="0"
           style="color:#000000;isolation:auto;mix-blend-mode:normal;solid-color:#000000;fill:#a2a2a2;fill-rule:evenodd;filter:url(#a-3);color-rendering:auto;image-rendering:auto;shape-rendering:auto"
           d="m 17.143,1032.6 -10.893,12.3 13,0 -6.25,7.4129 6,0 6.25,-7.4129 13,0 10.893,-12.355 z"
           transform="matrix(0.96696,0,0,1.0589,0.17935,-62.09)"
           id="path4197" />
      </g>
      <g
         style="fill-rule:evenodd"
         transform="translate(190.07125,-42.571134)"
         id="g4164">
        <rect
           style="color:#000000;isolation:auto;mix-blend-mode:normal;solid-color:#000000;fill:url(#a);stroke:#7e7e7e;stroke-width:0.95235002;color-rendering:auto;image-rendering:auto;shape-rendering:auto"
           height="19.048"
           width="31.048"
           y="1020.8"
           x="0.47617999"
           id="rect4166" />
        <rect
           style="color:#000000;isolation:auto;mix-blend-mode:normal;solid-color:#000000;fill:#a2a2a2;color-rendering:auto;image-rendering:auto;shape-rendering:auto"
           height="12"
           width="6"
           y="1040.4"
           x="13"
           id="rect4168" />
      </g>
    </g>
    <flowRoot
       xml:space="preserve"
       id="flowRoot4218"
       style="font-style:normal;font-weight:normal;font-size:40px;line-height:125%;font-family:sans-serif;letter-spacing:0px;word-spacing:0px;fill:#000000;fill-opacity:1;stroke:none;stroke-width:1px;stroke-linecap:butt;stroke-linejoin:miter;stroke-opacity:1"
       transform="translate(34.285714,831.67786)"><flowRegion
         id="flowRegion4220"><rect
           id="rect4222"
           width="684.28571"
           height="145.71428"
           x="215.71428"
           y="49.628796" /></flowRegion><flowPara
         id="flowPara4224"
         style="font-style:normal;font-variant:normal;font-weight:normal;font-stretch:normal;font-size:80px;font-family:sans-serif;-inkscape-font-specification:sans-serif">OpenAdvertMap</flowPara></flowRoot>  </g>
</svg>
