<?xml version="1.0" encoding="UTF-8" standalone="no"?>
<svg xmlns:rdf="http://www.w3.org/1999/02/22-rdf-syntax-ns#" xmlns="http://www.w3.org/2000/svg" height="32" width="32" version="1.1" xmlns:cc="http://creativecommons.org/ns#" xmlns:dc="http://purl.org/dc/elements/1.1/" viewBox="0 0 32 32.000001">
 <defs>
  <radialGradient id="a" gradientUnits="userSpaceOnUse" cy="1032" cx="15.58" gradientTransform="matrix(.89010 0 0 .55291 2.1318 -556.12)" r="13.515">
   <stop stop-color="#ff0018" offset="0"/>
   <stop stop-color="#fff600" offset="1"/>
  </radialGradient>
 </defs>
 <rect style="color-rendering:auto;color:#000000;isolation:auto;mix-blend-mode:normal;shape-rendering:auto;solid-color:#000000;image-rendering:auto" fill-rule="evenodd" height="14.286" width="23.286" stroke="#7e7e7e" y="7.288" x="4.3571" stroke-width=".71427" fill="url(#a)"/>
 <rect style="color-rendering:auto;color:#000000;isolation:auto;mix-blend-mode:normal;shape-rendering:auto;solid-color:#000000;image-rendering:auto" fill-rule="evenodd" height="10" width="1" y="22" x="15.5" fill="#a2a2a2"/>
 <g fill-rule="evenodd" fill="#930100">
  <path style="color-rendering:auto;text-decoration-color:#000000;color:#000000;isolation:auto;mix-blend-mode:normal;shape-rendering:auto;solid-color:#000000;block-progression:tb;text-decoration-line:none;text-decoration-style:solid;image-rendering:auto;white-space:normal;text-indent:0;text-transform:none" d="m14.576 18.619v1h10.373v-1h-10.373z"/>
  <path d="m26.103 19.119-1.73 1v-2l1.73 1z" stroke="#930100" stroke-width=".2pt"/>
 </g>
</svg>
