<?xml version="1.0" encoding="UTF-8" standalone="no"?>
<svg xmlns:rdf="http://www.w3.org/1999/02/22-rdf-syntax-ns#" xmlns="http://www.w3.org/2000/svg" height="32" width="32" version="1.1" xmlns:cc="http://creativecommons.org/ns#" xmlns:dc="http://purl.org/dc/elements/1.1/" viewBox="0 0 32 32.000001">
 <g transform="translate(0 -1020.4)">
  <path style="color-rendering:auto;text-decoration-color:#000000;color:#000000;isolation:auto;mix-blend-mode:normal;shape-rendering:auto;solid-color:#000000;block-progression:tb;text-decoration-line:none;text-decoration-style:solid;image-rendering:auto;white-space:normal;text-indent:0;text-transform:none" d="m9 0v1.334l-5 5 0.666 0.666 4.334-4.334v4.668l-5 5 0.666 0.666 4.334-4.334v4.668l-5 5 0.666 0.666 4.334-4.334v4.668l-5 5 0.666 0.666 4.334-4.334v4.668l-5 5 0.666 0.666 4.334-4.334v5.334h2v-14.5h5v4.5h12v-12h-12v4.5h-5v-14.5h-2z" fill-rule="evenodd" transform="translate(0 1020.4)" fill="#808080"/>
 </g>
</svg>
