<?xml version="1.0" encoding="UTF-8" standalone="no"?>
<svg xmlns:rdf="http://www.w3.org/1999/02/22-rdf-syntax-ns#" xmlns="http://www.w3.org/2000/svg" height="32" width="32" version="1.1" xmlns:cc="http://creativecommons.org/ns#" xmlns:dc="http://purl.org/dc/elements/1.1/" viewBox="0 0 32 32.000001">
 <defs>
  <radialGradient id="a" gradientUnits="userSpaceOnUse" cy="1065.7" cx="16.176" gradientTransform="matrix(1.1172,0,0,1.1411,-2.0367,-1199.9)" r="13.515">
   <stop stop-color="#ff0018" offset="0"/>
   <stop stop-color="#fff600" offset="1"/>
  </radialGradient>
 </defs>
 <g transform="matrix(.74999 0 0 .74999 4.0002 8.0003)">
  <circle style="color-rendering:auto;color:#000000;isolation:auto;mix-blend-mode:normal;shape-rendering:auto;solid-color:#000000;image-rendering:auto" stroke-width="1.4265" fill-rule="evenodd" stroke="#7e7e7e" cy="16" cx="16" r="15.287" fill="url(#a)"/>
  <g fill="#510000" transform="matrix(.6835 0 0 .6835 3.5583 -3.2315)">
   <path d="m15.402 38.145h3.9648v4.9609h-3.9648v-4.9609zm3.848-2.871h-3.7305v-3.0078q0-1.9727 0.54688-3.2422t2.3047-2.9492l1.7578-1.7383q1.1133-1.0352 1.6016-1.9531 0.50781-0.91797 0.50781-1.875 0-1.7383-1.2891-2.8125-1.2695-1.0742-3.3789-1.0742-1.543 0-3.3008 0.68359-1.7383 0.68359-3.6328 1.9922v-3.6719q1.8359-1.1133 3.7109-1.6602 1.8945-0.54688 3.9062-0.54688 3.5938 0 5.7617 1.8945 2.1875 1.8945 2.1875 5 0 1.4844-0.70312 2.832-0.70312 1.3281-2.4609 3.0078l-1.7188 1.6797q-0.91797 0.91797-1.3086 1.4453-0.37109 0.50781-0.52734 0.99609-0.11719 0.41016-0.17578 0.99609-0.059 0.586-0.059 1.602v2.4023z"/>
  </g>
 </g>
</svg>
